Losowanie zostalo wygenerowane w programie "Lotto 2002" tworczosci Rafala Stanczuka 
Losowania Duzego-Lotka :
 
Liczba losowan :10000000
 
 
Liczba wystapien poszczegolnych liczb :
01. - 1224570 | 02. - 1225290 | 03. - 1223204 |  
04. - 1223767 | 05. - 1221966 | 06. - 1223780 |  
07. - 1225165 | 08. - 1224418 | 09. - 1224223 |  
10. - 1225269 | 11. - 1224089 | 12. - 1224532 |  
13. - 1223529 | 14. - 1225475 | 15. - 1225782 |  
16. - 1226031 | 17. - 1225471 | 18. - 1224474 |  
19. - 1223007 | 20. - 1225039 | 21. - 1225721 |  
22. - 1223841 | 23. - 1224009 | 24. - 1223977 |  
25. - 1224826 | 26. - 1224667 | 27. - 1225870 |  
28. - 1224781 | 29. - 1224665 | 30. - 1226651 |  
31. - 1225029 | 32. - 1222838 | 33. - 1225114 |  
34. - 1225675 | 35. - 1224128 | 36. - 1224328 |  
37. - 1224639 | 38. - 1224601 | 39. - 1223092 |  
40. - 1222787 | 41. - 1223901 | 42. - 1225644 |  
43. - 1223133 | 44. - 1224716 | 45. - 1224577 |  
46. - 1225204 | 47. - 1223811 | 48. - 1224148 |  
49. - 1224546 | 