00000000000000000000000000001111111100000000000000000000000000000000000000000000
00000000000000000000000000110010010001000000000000000000000000000000000000000000
00000000000000000000000000101000001000000000000000000000000000000000000000000000
00000000000000000000000000110000001100100000000000000000000000000000000000000000
00000000000000000000000001100000000100000000000000000000000000000000000000000000
00000000000000000000000100100000000100001000000000000000000000000000000000000000
00000000000000000000000000100000000000000000000000000000000000000000000000000000
00000000000000000000010000100000000100001000011100000000000000000000000000000000
00000000000000000000100000000000000000000000110000000000000000000000000000000000
00000000000000000000000000100000000000000001000000000000000000000000000000000000
00000000000000000010000000100000000100000010011111100000000000000000000000000000
00000000000000000010000000000000000100000111100000110000000000000000000000000000
00000000000000000110000000100000000100011110000000011000000000000000000000000000
00000000000000000100000000100000001000111000000000001000000000000000000000000000
00000000000000000110000000100000001001010001100000001000000000000000000000000000
00000000000000000001000000000000010010010000000000000000000000000000000000000000
00000000000000000000011000000000100110011000000000000100000000000000000000000000
00000000000000000000000001010110100100001000100000000010000000000000000000000000
00000000000000000000000000000000000110000100100000000001000000000000000000000000
00000000000000000000000000000000000010000001100000000001000000000000000000000000
00000000000000000000000000000000000001100001110111001011000000000000000000000000
00000000000000000000000000000000000000000001000000000000000000000000000000000000
00000000000000000000000000000000000000001110000000000000000000000000000000000000
00000000000000000000000000000000000000000000000000000000000000000000000000000000
